(module sharp_display (layer F.Cu) (tedit 60F864F6)
  (fp_text reference REF** (at 0 -5.85) (layer F.SilkS)
    (effects (font (size 1 1) (thickness 0.15)))
  )
  (fp_text value sharp_display (at 0 -6.85) (layer F.Fab)
    (effects (font (size 1 1) (thickness 0.15)))
  )
  (fp_line (start -20.32 1.27) (end 0 1.27) (layer F.SilkS) (width 0.12))
  (fp_line (start -20.32 -39.37) (end -20.32 1.27) (layer F.SilkS) (width 0.12))
  (fp_line (start 20.32 -39.37) (end -20.32 -39.37) (layer F.SilkS) (width 0.12))
  (fp_line (start 20.32 1.27) (end 20.32 -39.37) (layer F.SilkS) (width 0.12))
  (fp_line (start 0 1.27) (end 20.32 1.27) (layer F.SilkS) (width 0.12))
  (pad 0 thru_hole circle (at -10.16 0) (size 1.524 1.524) (drill 0.762) (layers *.Cu *.Mask))
  (pad 1 thru_hole circle (at -7.62 0) (size 1.524 1.524) (drill 0.762) (layers *.Cu *.Mask))
  (pad 2 thru_hole circle (at -5.08 0) (size 1.524 1.524) (drill 0.762) (layers *.Cu *.Mask))
  (pad 3 thru_hole circle (at -2.54 0) (size 1.524 1.524) (drill 0.762) (layers *.Cu *.Mask))
  (pad 4 thru_hole circle (at 0 0) (size 1.524 1.524) (drill 0.762) (layers *.Cu *.Mask))
  (pad 5 thru_hole circle (at 2.54 0) (size 1.524 1.524) (drill 0.762) (layers *.Cu *.Mask))
  (pad 6 thru_hole circle (at 5.08 0) (size 1.524 1.524) (drill 0.762) (layers *.Cu *.Mask))
  (pad 7 thru_hole circle (at 7.62 0) (size 1.524 1.524) (drill 0.762) (layers *.Cu *.Mask))
  (pad 8 thru_hole circle (at 10.16 0) (size 1.524 1.524) (drill 0.762) (layers *.Cu *.Mask))
)
